…
# EX

{% highlight r %}
# 다이아몬드 가격이 950 이하이고, 800이상인 것만 고를 때
diamonds %>%
  filter(price <= 950 & price >= 800)
{% endhighlight %}



{% highlight text %}
## # A tibble: 3,707 x 10
##    carat cut       color clarity depth table price     x     y     z
##    <dbl> <ord>     <ord> <ord>   <dbl> <dbl> <int> <dbl> <dbl> <dbl>
##  1  0.41 Very Good G     VS2      61.4  57     800  4.76  4.81  2.94
##  2  0.32 Ideal     F     VVS2     62.1  55     800  4.37  4.39  2.72
##  3  0.32 Ideal     F     VVS2     61.2  57     800  4.42  4.44  2.71
##  4  0.32 Ideal     F     VVS2     60.9  56     800  4.44  4.46  2.71
##  5  0.32 Ideal     F     VVS2     61.2  55     800  4.43  4.46  2.72
##  6  0.38 Ideal     I     VVS1     62.4  54.8   800  4.64  4.66  2.9 
##  7  0.4  Ideal     H     VS2      61.6  57     800  4.71  4.74  2.91
##  8  0.36 Ideal     D     VS2      61.8  55     800  4.58  4.61  2.84
##  9  0.31 Ideal     E     VS1      62    55     800  4.35  4.38  2.7 
## 10  0.31 Ideal     E     VS1      61.7  53     800  4.36  4.39  2.7 
## # ... with 3,697 more rows
{% endhighlight %}



{% highlight r %}
# c로 시작하는 변수들만 선택
diamonds %>%
  select(starts_with("c"))
{% endhighlight %}



{% highlight text %}
## # A tibble: 53,940 x 4
##    carat cut       color clarity
##    <dbl> <ord>     <ord> <ord>  
##  1 0.23  Ideal     E     SI2    
##  2 0.21  Premium   E     SI1    
##  3 0.23  Good      E     VS1    
##  4 0.290 Premium   I     VS2    
##  5 0.31  Good      J     SI2    
##  6 0.24  Very Good J     VVS2   
##  7 0.24  Very Good I     VVS1   
##  8 0.26  Very Good H     SI1    
##  9 0.22  Fair      E     VS2    
## 10 0.23  Very Good H     VS1    
## # ... with 53,930 more rows
{% endhighlight %}



{% highlight r %}
# 변수의 끝나는 스펠링
diamonds %>%
  select(ends_with("e"))
{% endhighlight %}



{% highlight text %}
## # A tibble: 53,940 x 2
##    table price
##    <dbl> <int>
##  1    55   326
##  2    61   326
##  3    65   327
##  4    58   334
##  5    58   335
##  6    57   336
##  7    57   336
##  8    55   337
##  9    61   337
## 10    61   338
## # ... with 53,930 more rows
{% endhighlight %}



{% highlight r %}
# 변수에 포함된 스펠링 
diamonds %>%
  select(contains("r"))
{% endhighlight %}



{% highlight text %}
## # A tibble: 53,940 x 4
##    carat color clarity price
##    <dbl> <ord> <ord>   <int>
##  1 0.23  E     SI2       326
##  2 0.21  E     SI1       326
##  3 0.23  E     VS1       327
##  4 0.290 I     VS2       334
##  5 0.31  J     SI2       335
##  6 0.24  J     VVS2      336
##  7 0.24  I     VVS1      336
##  8 0.26  H     SI1       337
##  9 0.22  E     VS2       337
## 10 0.23  H     VS1       338
## # ... with 53,930 more rows
{% endhighlight %}



{% highlight r %}
# 특정 위치의 선택
diamonds %>%
  select(1:4)
{% endhighlight %}



{% highlight text %}
## # A tibble: 53,940 x 4
##    carat cut       color clarity
##    <dbl> <ord>     <ord> <ord>  
##  1 0.23  Ideal     E     SI2    
##  2 0.21  Premium   E     SI1    
##  3 0.23  Good      E     VS1    
##  4 0.290 Premium   I     VS2    
##  5 0.31  Good      J     SI2    
##  6 0.24  Very Good J     VVS2   
##  7 0.24  Very Good I     VVS1   
##  8 0.26  Very Good H     SI1    
##  9 0.22  Fair      E     VS2    
## 10 0.23  Very Good H     VS1    
## # ... with 53,930 more rows
…
# grouping

{% highlight r %}
storm %>%
  group_by(name,year)  # name 과 year로 오름차순으로 
{% endhighlight %}



{% highlight text %}
## # A tibble: 10,010 x 13
## # Groups:   name, year [426]
##    name   year month   day  hour   lat  long status category  wind
##    <chr> <dbl> <dbl> <int> <dbl> <dbl> <dbl> <chr>  <ord>    <int>
##  1 Amy    1975     6    27     0  27.5 -79   tropi~ -1          25
##  2 Amy    1975     6    27     6  28.5 -79   tropi~ -1          25
##  3 Amy    1975     6    27    12  29.5 -79   tropi~ -1          25
##  4 Amy    1975     6    27    18  30.5 -79   tropi~ -1          25
##  5 Amy    1975     6    28     0  31.5 -78.8 tropi~ -1          25
##  6 Amy    1975     6    28     6  32.4 -78.7 tropi~ -1          25
##  7 Amy    1975     6    28    12  33.3 -78   tropi~ -1          25
##  8 Amy    1975     6    28    18  34   -77   tropi~ -1          30
##  9 Amy    1975     6    29     0  34.4 -75.8 tropi~ 0           35
## 10 Amy    1975     6    29     6  34   -74.8 tropi~ 0           40
## # ... with 10,000 more rows, and 3 more variables: pressure <int>,
## #   ts_diameter <dbl>, hu_diameter <dbl>
…
{% highlight r %}
# --------- grouping + summarizing
storm %>%
  group_by(name,year) %>% # 이름과, 년도에 대해 grouping
  summarise(n_obs = n(), # 각 group 에서 갯수가 몇개?
            max_wind = max(wind), # max wind 는 얼마?
            min_wind = min(wind)) 
{% endhighlight %}



{% highlight text %}
## # A tibble: 426 x 5
## # Groups:   name [198]
##    name      year n_obs max_wind min_wind
##    <chr>    <dbl> <int>    <int>    <int>
##  1 AL011993  1993     8       30       25
##  2 AL012000  2000     4       25       25
##  3 AL021992  1992     5       30       25
##  4 AL021994  1994     6       30       15
##  5 AL021999  1999     4       30       25
##  6 AL022000  2000    12       30       25
##  7 AL022001  2001     5       25       25
##  8 AL022003  2003     4       30       30
##  9 AL022006  2006     5       45       30
## 10 AL031987  1987    32       40       10
## # ... with 416 more rows
…
# sampling 함수

{% highlight r %}
# 전체 관측치 중에서 100개만 비복원 추출
diamonds %>%
  sample_n(100)
{% endhighlight %}



{% highlight text %}
## # A tibble: 100 x 10
##    carat cut       color clarity depth table price width length heigth
##    <dbl> <ord>     <ord> <ord>   <dbl> <dbl> <int> <dbl>  <dbl>  <dbl>
##  1 0.7   Ideal     D     VVS2     61.3    56  5539  5.72   5.76   3.52
##  2 0.54  Premium   G     VS2      60      59  1637  5.42   5.22   3.19
##  3 0.7   Premium   F     SI1      60.5    58  2264  5.77   5.84   3.51
##  4 0.570 Ideal     E     VS2      61.6    56  1819  5.38   5.34   3.3 
##  5 1.99  Good      J     VS2      62.9    61 13338  7.91   8.06   4.99
##  6 0.570 Very Good G     SI1      61.9    59  1340  5.28   5.31   3.28
##  7 1.14  Good      G     VS1      63.4    58  7042  6.61   6.67   4.21
##  8 0.76  Ideal     E     SI2      62.8    56  2873  5.78   5.82   3.64
##  9 0.2   Premium   E     VS2      61.1    59   367  3.81   3.78   2.32
## 10 0.3   Very Good G     VVS1     60.6    61   789  4.33   4.35   2.63
## # ... with 90 more rows
{% endhighlight %}



{% highlight r %}
# 100개만 복원 추출
diamonds %>%
  sample_n(100,
           replace = T)
{% endhighlight %}



{% highlight text %}
## # A tibble: 100 x 10
##    carat cut       color clarity depth table price width length heigth
##    <dbl> <ord>     <ord> <ord>   <dbl> <dbl> <int> <dbl>  <dbl>  <dbl>
##  1 0.32  Premium   E     SI1      62.8    57   720  4.39   4.34   2.74
##  2 0.580 Good      E     VS1      58.6    64  2185  5.4    5.46   3.18
##  3 0.33  Ideal     H     VS1      62      55   743  4.46   4.44   2.76
##  4 0.42  Premium   F     SI1      60      59   773  4.85   4.88   2.92
##  5 1.38  Very Good J     VS2      62.7    56  6494  7.06   7.11   4.44
##  6 2.01  Premium   J     SI1      60.5    59 12690  8.12   8.01   4.88
##  7 0.3   Ideal     E     VVS1     62.1    57   862  4.27   4.29   2.66
##  8 1     Premium   G     VVS2     60.5    62  7392  6.44   6.39   3.88
##  9 0.570 Ideal     E     SI1      62.1    56  1728  5.33   5.3    3.3 
## 10 0.83  Ideal     H     VVS1     61.7    57  3570  6.02   6.07   3.73
## # ... with 90 more rows
{% endhighlight %}



{% highlight r %}
# 전체 데이터중에 30% 비복원 추출
diamonds %>%
  sample_frac(.3)
{% endhighlight %}



{% highlight text %}
## # A tibble: 16,182 x 10
##    carat cut       color clarity depth table price width length heigth
##    <dbl> <ord>     <ord> <ord>   <dbl> <dbl> <int> <dbl>  <dbl>  <dbl>
##  1 1.51  Good      H     VS2      63.8  56    7949  7.24   7.17   4.6 
##  2 2.01  Good      H     SI1      63.9  59   15467  7.81   7.91   5.02
##  3 0.31  Ideal     G     VVS2     61.5  57     671  4.32   4.36   2.67
##  4 0.32  Premium   G     VVS2     60.8  59     936  4.44   4.41   2.69
##  5 0.580 Ideal     H     SI1      60.6  56    1386  5.44   5.49   3.31
##  6 0.32  Premium   H     SI1      61.3  60     449  4.36   4.42   2.69
##  7 0.32  Very Good H     VVS2     62.1  58     645  4.34   4.39   2.71
##  8 0.7   Premium   E     SI2      62    55    2135  5.65   5.61   3.49
##  9 0.7   Premium   E     VS1      59.4  61    2826  5.78   5.74   3.42
## 10 0.32  Good      F     SI1      61.6  60.1   528  4.38   4.4    2.71
## # ... with 16,172 more rows
…
#-------------------------- Advanced working--------------------#


{% highlight r %}
# group by 로 두개 변수의 combination 에 대해서 각 value 들의 count
diamonds %>% 
  group_by(cut,color) %>%
  summarise(count = n())
{% endhighlight %}



{% highlight text %}
## # A tibble: 35 x 3
## # Groups:   cut [5]
##    cut   color count
##    <ord> <ord> <int>
##  1 Fair  D       163
##  2 Fair  E       224
##  3 Fair  F       312
##  4 Fair  G       314
##  5 Fair  H       303
##  6 Fair  I       175
##  7 Fair  J       119
##  8 Good  D       662
##  9 Good  E       933
## 10 Good  F       909
## # ... with 25 more rows
{% endhighlight %}



{% highlight r %}
# 이렇게 해도 위와 같다.
diamonds %>%
  count(cut,color) 
{% endhighlight %}



{% highlight text %}
## # A tibble: 35 x 3
##    cut   color     n
##    <ord> <ord> <int>
##  1 Fair  D       163
##  2 Fair  E       224
##  3 Fair  F       312
##  4 Fair  G       314
##  5 Fair  H       303
##  6 Fair  I       175
##  7 Fair  J       119
##  8 Good  D       662
##  9 Good  E       933
## 10 Good  F       909
## # ... with 25 more rows
{% endhighlight %}



{% highlight r %}
# group by 로 두개 변수의 combination에 대해서, unique 한 clarity 의 count
diamonds %>% 
  group_by(cut ,color) %>%
  summarise(count = n_distinct(clarity))
{% endhighlight %}



{% highlight text %}
## # A tibble: 35 x 3
## # Groups:   cut [5]
##    cut   color count
##    <ord> <ord> <int>
##  1 Fair  D         8
##  2 Fair  E         7
##  3 Fair  F         8
##  4 Fair  G         8
##  5 Fair  H         7
##  6 Fair  I         7
##  7 Fair  J         7
##  8 Good  D         8
##  9 Good  E         8
## 10 Good  F         8
## # ... with 25 more rows
…
